Programación con R
…
---
## Importar datos a R

### readxl: **.xlsx**

**Ejemplo:**

```r
datos_xlsx <- read_xlsx("datos.xlsx")
datos_xlsx
```

```
## # A tibble: 24 x 6
##       ID localidad                    ano zona     var_respuesta temperatura
##    <dbl> <chr>                      <dbl> <chr>            <dbl>       <dbl>
##  1     1 Puerto Iguazú - Misiones    2001 agrícola            NA        25  
##  2     2 Puerto Liberdad - Misiones  2001 agrícola             2        26.7
##  3     3 San Pedro - Misiones        2001 agrícola             5        24.2
##  4     4 Tareiri - Misiones          2001 agrícola             4        26.2
##  5     5 Puerto Iguazú - Misiones    2005 agrícola             6        27  
##  6     6 Puerto Liberdad - Misiones  2005 agrícola            NA        25.5
##  7     7 San Pedro - Misiones        2005 agrícola             7        26  
##  8     8 Tareiri - Misiones          2005 agrícola             9        26.5
##  9     9 Puerto Iguazú - Misiones    2001 bosque              30        20  
## 10    10 Puerto Liberdad - Misiones  2001 bosque              52        21  
## # ... with 14 more rows
```
…
